…
12. Which country had the largest overall catch in the year 2000?


```r
fisheries_tidy2%>%
  filter(years==2000) %>%
  arrange(desc(catch))
```

```
## # A tibble: 8,001 x 6
##    country       ISSCAAP_spgroupname   ASFIS_spcode ASFIS_sciname   years  catch
##    <fct>         <fct>                 <fct>        <fct>           <chr>  <dbl>
##  1 Peru          Herrings, sardines, ~ 1210600208   Engraulis ring~ 2000  9.58e6
##  2 Chile         Herrings, sardines, ~ 1210600208   Engraulis ring~ 2000  1.70e6
##  3 Chile         Miscellaneous pelagi~ 1702300405   Trachurus murp~ 2000  1.23e6
##  4 Russian Fede~ Cods, hakes, haddocks 1480401601   Theragra chalc~ 2000  1.22e6
##  5 United State~ Cods, hakes, haddocks 1480401601   Theragra chalc~ 2000  1.18e6
##  6 Viet Nam      Marine fishes not id~ 199XXXXXXX0~ Osteichthyes    2000  1.01e6
##  7 Iceland       Miscellaneous pelagi~ 1230400201   Mallotus villo~ 2000  8.92e5
##  8 Myanmar       Marine fishes not id~ 199XXXXXXX0~ Osteichthyes    2000  8.73e5
##  9 Norway        Herrings, sardines, ~ 1210500105   Clupea harengus 2000  8.00e5
## 10 Chile         Herrings, sardines, ~ 1210507801   Strangomera be~ 2000  7.23e5
## # ... with 7,991 more rows
```

###Peru had the largest overall catch

13. Which country caught the most sardines (_Sardina_) between the years 1990-2000?


```r
fisheries_tidy2%>%
  filter(years%in% c(1990,1991,1992,1992,1994,1995,1996,1997,1998,1999,2000), str_detect(ASFIS_sciname,"Sardina"))%>%
  arrange(desc(catch))
```

```
## # A tibble: 286 x 6
##    country      ISSCAAP_spgroupname    ASFIS_spcode ASFIS_sciname   years  catch
##    <fct>        <fct>                  <fct>        <fct>           <chr>  <dbl>
##  1 Morocco      Herrings, sardines, a~ 1210506401   Sardina pilcha~ 1995  556152
##  2 Morocco      Herrings, sardines, a~ 1210506401   Sardina pilcha~ 2000  525859
##  3 Morocco      Herrings, sardines, a~ 1210506401   Sardina pilcha~ 1997  487496
##  4 Morocco      Herrings, sardines, a~ 1210506401   Sardina pilcha~ 1994  476947
##  5 Morocco      Herrings, sardines, a~ 1210506401   Sardina pilcha~ 1998  426723
##  6 Morocco      Herrings, sardines, a~ 1210506401   Sardina pilcha~ 1999  416171
##  7 Morocco      Herrings, sardines, a~ 1210506401   Sardina pilcha~ 1996  376925
##  8 Russian Fed~ Herrings, sardines, a~ 1210506401   Sardina pilcha~ 1990  356203
##  9 Morocco      Herrings, sardines, a~ 1210506401   Sardina pilcha~ 1991  351827
## 10 Morocco      Herrings, sardines, a~ 1210506401   Sardina pilcha~ 1990  325845
## # ... with 276 more rows
```
…
15. Given the top five countries from question 12 above, which species was the highest catch total? The lowest?


```r
fisheries_tidy2%>%
  filter(country %in% c("India", "China", "Cambodia", "Madagascar", "Mozambique"))%>%
  group_by(ASFIS_sciname)%>%
  summarise(catch=sum(catch))%>%
  arrange(desc(catch))
```

```
## # A tibble: 130 x 2
##    ASFIS_sciname            catch
##    <fct>                    <dbl>
##  1 Osteichthyes         101995246
##  2 Trichiurus lepturus   28104645
##  3 Mollusca              17862471
##  4 Crustacea             15109357
##  5 Sardinella longiceps  12948657
##  6 Sciaenidae            11039403
##  7 Natantia              10281686
##  8 Acetes japonicus       9535681
##  9 Scomber japonicus      9012279
## 10 Decapterus spp         8773533
## # ... with 120 more rows
```
####Osteichthyes was the highest catch total and Tetrapturus pfluegeri was the lowest catch

16. In some cases, the taxonomy of the fish being caught is unclear. Make a new data frame called `coastal_fish` that shows the taxonomic composition of "Miscellaneous coastal fishes" within the ISSCAAP_spgroupname column.


```r
coastal_fish <- 
  fisheries_tidy2%>%
  filter(str_detect(ISSCAAP_spgroupname, "Miscellaneous coastal fishes"))

coastal_fish
```

```
## # A tibble: 63,236 x 6
##    country ISSCAAP_spgroupname          ASFIS_spcode ASFIS_sciname years catch
##    <fct>   <fct>                        <fct>        <fct>         <chr> <dbl>
##  1 Albania Miscellaneous coastal fishes 1703926101   Boops boops   1983    559
##  2 Albania Miscellaneous coastal fishes 1703926101   Boops boops   1984    392
##  3 Albania Miscellaneous coastal fishes 1703926101   Boops boops   1985    406
##  4 Albania Miscellaneous coastal fishes 1703926101   Boops boops   1986    499
##  5 Albania Miscellaneous coastal fishes 1703926101   Boops boops   1987    564
##  6 Albania Miscellaneous coastal fishes 1703926101   Boops boops   1988    724
##  7 Albania Miscellaneous coastal fishes 1703926101   Boops boops   1989    583
##  8 Albania Miscellaneous coastal fishes 1703926101   Boops boops   1990    754
##  9 Albania Miscellaneous coastal fishes 1703926101   Boops boops   1991    283
## 10 Albania Miscellaneous coastal fishes 1703926101   Boops boops   1992    196
## # ... with 63,226 more rows
```


17. Use the data to do at least one exploratory analysis of your choice. What can you learn?


```r
coastal_fish%>%
  filter(years>=2000)%>%
  filter(str_detect(ASFIS_sciname, "Boops boops"))%>%
  arrange(catch)
```

```
## # A tibble: 336 x 6
##    country  ISSCAAP_spgroupname          ASFIS_spcode ASFIS_sciname years catch
##    <fct>    <fct>                        <fct>        <fct>         <chr> <dbl>
##  1 Portugal Miscellaneous coastal fishes 1703926101   Boops boops   2008      1
##  2 Slovenia Miscellaneous coastal fishes 1703926101   Boops boops   2002      1
##  3 Slovenia Miscellaneous coastal fishes 1703926101   Boops boops   2003      1
##  4 Slovenia Miscellaneous coastal fishes 1703926101   Boops boops   2005      1
##  5 Slovenia Miscellaneous coastal fishes 1703926101   Boops boops   2010      1
##  6 Slovenia Miscellaneous coastal fishes 1703926101   Boops boops   2012      1
##  7 Togo     Miscellaneous coastal fishes 1703926101   Boops boops   2003      1
##  8 Slovenia Miscellaneous coastal fishes 1703926101   Boops boops   2001      2
##  9 Slovenia Miscellaneous coastal fishes 1703926101   Boops boops   2007      2
## 10 Slovenia Miscellaneous coastal fishes 1703926101   Boops boops   2009      2
## # ... with 326 more rows
```
…
