…
## Questions
The questions below are open-ended and have many possible solutions. Your approach should, where appropriate, include numerical summaries and visuals. Be creative; assume you are building an analysis that you would ultimately present to an audience of stakeholders. Feel free to try out different `geoms` if they more clearly present your results.  

**1. Use the function(s) of your choice to get an idea of the overall structure of the data frame, including its dimensions, column names, variable classes, etc. As part of this, determine how NAs are treated in the data.**  


```r
gapminder
```

```
## # A tibble: 1,704 x 6
##    country     continent  year lifeExp      pop gdpPercap
##    <fct>       <fct>     <int>   <dbl>    <int>     <dbl>
##  1 Afghanistan Asia       1952    28.8  8425333      779.
##  2 Afghanistan Asia       1957    30.3  9240934      821.
##  3 Afghanistan Asia       1962    32.0 10267083      853.
##  4 Afghanistan Asia       1967    34.0 11537966      836.
##  5 Afghanistan Asia       1972    36.1 13079460      740.
##  6 Afghanistan Asia       1977    38.4 14880372      786.
##  7 Afghanistan Asia       1982    39.9 12881816      978.
##  8 Afghanistan Asia       1987    40.8 13867957      852.
##  9 Afghanistan Asia       1992    41.7 16317921      649.
## 10 Afghanistan Asia       1997    41.8 22227415      635.
## # ... with 1,694 more rows
```
…
**4. Your answer above doesn't tell the whole story since life expectancy varies by region. Make a summary that shows the min, mean, and max life expectancy by continent for all years represented in the data.**



```r
gapminder%>%
  select(year, continent, lifeExp)%>%
  group_by(continent, year)%>%
  summarise(min_life_exp = min(lifeExp), max_life_exp= max(lifeExp), ave_life_exp= mean(lifeExp))
```

```
## # A tibble: 60 x 5
## # Groups:   continent [5]
##    continent  year min_life_exp max_life_exp ave_life_exp
##    <fct>     <int>        <dbl>        <dbl>        <dbl>
##  1 Africa     1952         30           52.7         39.1
##  2 Africa     1957         31.6         58.1         41.3
##  3 Africa     1962         32.8         60.2         43.3
##  4 Africa     1967         34.1         61.6         45.3
##  5 Africa     1972         35.4         64.3         47.5
##  6 Africa     1977         36.8         67.1         49.6
##  7 Africa     1982         38.4         69.9         51.6
##  8 Africa     1987         39.9         71.9         53.3
##  9 Africa     1992         23.6         73.6         53.6
## 10 Africa     1997         36.1         74.8         53.6
## # ... with 50 more rows
```
…
